3
Testing parameters
1
2
3
Testing lexical scoping
1
2
3
Testing E::=
null
4
-4
Hello
0
3
2
6
hello!
-3
0
0
0
0
1
1
0
1
1
0
1
1
1
0
1
0
1
1
0
0
0
0
1
null
2
hello
2
this is correct
this is correct
this will be printed
this will also be printed
Testing Example programs
24
null
1
1
2
1
2
3
4
5
6
7
8
9
10
2
null
2
null
null
hello world
Testing other bits of code from spec
3
1
2
null
null
Testing if
Testing while
Testing for
Testing please excuse my dear aunt sally
